flatiron-technical-test
…
# treatment data can be more complicated to de-duplicate. Let's see if we have
# any exact duplicates
nrow(treatment |> distinct()) == nrow(treatment)

[1] FALSE

# looks like we do. Let's just check them quickly
treatment |> janitor::get_dupes()

# A tibble: 54 × 4
   patient_id treatment_date drug_code dupe_count
   <chr>      <date>         <chr>          <int>
 1 2475       2010-02-17     B                 10
 2 2475       2010-02-17     B                 10
 3 2475       2010-02-17     B                 10
 4 2475       2010-02-17     B                 10
 5 2475       2010-02-17     B                 10
 6 2475       2010-02-17     B                 10
 7 2475       2010-02-17     B                 10
 8 2475       2010-02-17     B                 10
 9 2475       2010-02-17     B                 10
10 2475       2010-02-17     B                 10
# ℹ 44 more rows
…
